{
  "ABP1_AOC1_HUMAN_P19801": ["amiloride"],
  "ABP1_AOC1_PIG_Q9TRC7": ["amiloride"],
  "ACHE_ACES_HUMAN_P22303": ["mefloquine"],
  "ADA_ADA_HUMAN_P00813": ["Prestwick-983", "theophylline"],
  "ADH1A_ADH1A_HUMAN_P07327": ["nadide"],
  "ADH1B_ADH1B_HUMAN_P00325": ["nadide"],
  "ADH4_ADH4_HUMAN_P08319": ["nadide"],
  "ADH5_ADHX_HUMAN_P11766": ["nadide"],
  "ADH6_ADH6_HUMAN_P28332": ["nadide"],
  "ADH7_ADH7_HUMAN_P40394": ["nadide"],
  "ADK_ADK_HUMAN_P55263": ["ribavirin"],
  "AKR1A1_AK1A1_HUMAN_P14550": ["nadide", "doxorubicin"],
  "AKR1C3_AK1C3_HUMAN_P42330": ["doxorubicin"],
  "AMPD1_AMPD1_HUMAN_P23109": ["adenosine phosphate"],
  "AOX1_ADO_HUMAN_Q06278": ["nadide", "menadione", "pyrazinamide", "raloxifene", "aminocaproic acid", "methotrexate", "mercaptopurine"],
  "APRT_APT_HUMAN_P07741": ["adenosine phosphate"],
  "ARSA_ARSA_HUMAN_P15289": ["suramin sodium"],
  "ASMT_ASMT_HUMAN_P46597": ["melatonin"],
  "ATIC_PUR9_HUMAN_P31939": ["methotrexate"],
  "BCAT1_BCAT1_HUMAN_P54687": ["gabapentin"],
  "BCHE_CHLE_HUMAN_P06276": ["ramipril", "mefloquine", "sulpiride", "profenamine", "chlorpromazine", "triflupromazine", "cinchocaine", "nizatidine", "triamcinolone", "diethylcarbamazine", "procaine", "irinotecan", "chlorphenesin", "terbutaline", "oxybuprocaine", "cyclopentolate", "procainamide", "decamethonium bromide", "pancuronium bromide", "neostigmine bromide", "bambuterol"],
  "CBR1_CBR1_HUMAN_P16152": ["acetohexamide", "haloperidol", "doxorubicin"],
  "CDA_CDD_HUMAN_P32320": ["azacitidine"],
  "CES1_EST1_HUMAN_P23141": ["indometacin", "tamoxifen", "irinotecan", "benzocaine"],
  "COMT_COMT_HUMAN_P21964": ["diethylstilbestrol", "dobutamine", "methyldopa", "dopamine", "testosterone"],
  "CYP11A1_CP11A_HUMAN_P05108": ["colecalciferol", "clotrimazole", "omeprazole", "digoxin", "clomifene", "dinoprostone", "ketoconazole", "saquinavir", "dexamethasone"],
  "CYP11B1_C11B1_HUMAN_P15538": ["clotrimazole", "etomidate", "spironolactone", "cimetidine", "hydrocortisone", "metyrapone", "ketoconazole", "miconazole", "metoclopramide"],
  "CYP11B2_C11B2_HUMAN_P19099": ["etomidate", "hydrocortisone", "metyrapone", "metoclopramide"],
  "CYP17A1_CP17A_HUMAN_P05093": ["progesterone", "metoclopramide", "dexamethasone", "aminophenazone"],
  "CYP19A1_CP19A_HUMAN_P11511": ["troglitazone", "diethylstilbestrol", "clotrimazole", "etomidate", "mefloquine", "levonorgestrel", "carbimazole", "betamethasone", "raloxifene", "tamoxifen", "chlorphenesin", "clomifene", "dinoprostone", "exemestane", "letrozole", "melatonin", "miconazole", "econazole", "paclitaxel", "dexamethasone", "danazol", "cyproterone", "sulfathiazole"],
  "CYP1A1_CP1A1_HUMAN_P04798": ["pyridoxine", "colecalciferol", "menadione", "fluvoxamine", "troglitazone", "ticlopidine", "theophylline", "paracetamol", "gefitinib", "omeprazole", "chlorzoxazone", "clozapine", "progesterone", "streptozocin", "lansoprazole", "prazosin", "picrotoxinin", "flutamide", "haloperidol", "albendazole", "methoxsalen", "cinnarizine", "dexpropranolol", "clonidine", "diclofenac", "sulindac", "chloroquine", "amodiaquine", "clofibrate", "mebendazole", "estrone", "tamoxifen", "daunorubicin", "tiabendazole", "pentamidine", "riluzole", "tretinoin", "estradiol", "dicycloverine", "propofol", "dacarbazine", "clomifene", "quinidine", "clobetasol", "ketoconazole", "thalidomide", "norfloxacin", "(-)-isoprenaline", "melatonin", "primaquine", "ouabain", "fluvastatin", "nifedipine", "amiodarone", "dexamethasone", "bezafibrate", "clenbuterol", "resveratrol", "phenacetin", "debrisoquine", "flunarizine"],
  "CYP1A2_CP1A2_HUMAN_P05177": ["menadione", "fluvoxamine", "betaxolol", "erythromycin", "ticlopidine", "citalopram", "clotrimazole", "carmustine", "theophylline", "lidocaine", "bupivacaine", "valproic acid", "paracetamol", "amitriptyline", "omeprazole", "pyrazinamide", "chlorzoxazone", "aminoglutethimide", "clozapine", "mexiletine", "tacrine", "triamterene", "progesterone", "phenylpropanolamine", "griseofulvin", "rosiglitazone", "promazine", "streptozocin", "lansoprazole", "imipramine", "nabumetone", "enoxacin", "fluoxetine", "chlorpromazine", "flutamide", "cimetidine", "haloperidol", "albendazole", "mephenytoin", "rofecoxib", "ciprofloxacin", "nortriptyline", "methoxsalen", "carbamazepine", "cinnarizine", "dexpropranolol", "atropine", "clonidine", "diclofenac", "cisapride", "sulindac", "nafcillin", "rifabutin", "imatinib", "fluphenazine", "guanabenz", "estrone", "dexverapamil", "tamoxifen", "thioridazine", "daunorubicin"],
  "CYP1B1_CP1B1_HUMAN_Q16678": ["biotin", "theophylline", "omeprazole", "clozapine", "progesterone", "lansoprazole", "flutamide", "amodiaquine", "estrone", "tamoxifen", "daunorubicin", "estradiol", "propofol", "doxorubicin", "ketoconazole", "melatonin", "primaquine", "procarbazine", "mitoxantrone", "paclitaxel", "dexamethasone", "resveratrol"],
  "CYP24A1_CP24A_HUMAN_Q07973": ["ergocalciferol"],
  "CYP26A1_CP26A_HUMAN_O43174": ["ketoconazole"],
  "CYP27A1_CP27A_HUMAN_Q02318": ["ergocalciferol", "colecalciferol", "chenodeoxycholic acid"],
  "CYP27B1_CP27B_HUMAN_O15528": ["ergocalciferol"],
  "CYP2A13_CP2AD_HUMAN_Q16696": ["methoxsalen", "phenacetin"],
  "CYP2A6_CP2A6_HUMAN_P11509": ["menadione", "diethylstilbestrol", "clotrimazole", "lidocaine", "valproic acid", "paracetamol", "chlorzoxazone", "clozapine", "progesterone", "rosiglitazone", "zidovudine", "methoxsalen", "cinnarizine", "cisapride", "clofibrate", "tamoxifen", "tranylcypromine", "tretinoin", "thiamazole", "propofol", "prednisolone", "clomifene", "isoniazid", "letrozole", "metyrapone", "ketoconazole", "selegiline", "memantine", "rifampicin", "norfloxacin", "pilocarpine", "miconazole", "nifedipine", "amiodarone", "desipramine", "bupropion", "ifosfamide", "dexamethasone", "troleandomycin", "phenazone", "phenacetin", "flunarizine", "sulfaphenazole"],
  "CYP2B6_CP2B6_HUMAN_P20813": ["colecalciferol", "fluvoxamine", "troglitazone", "erythromycin", "ticlopidine", "citalopram", "clotrimazole", "lidocaine", "valproic acid", "amitriptyline", "mexiletine", "imipramine", "fluoxetine", "raloxifene", "dextromethorphan", "mephenytoin", "carbamazepine", "cinnarizine", "diclofenac", "cisapride", "nicardipine", "clofibrate", "simvastatin", "estrone", "dexverapamil", "tamoxifen", "paroxetine", "carbinoxamine", "tretinoin", "irinotecan", "thiamazole", "roxithromycin", "primidone", "propofol", "brompheniramine", "loperamide", "perphenazine", "quinidine", "doxorubicin", "ketoconazole", "selegiline", "memantine", "rifampicin", "promethazine", "perhexiline", "diphenhydramine", "fluvastatin", "miconazole", "nifedipine", "sulfinpyrazone", "desipramine", "bupropion", "orphenadrine", "ifosfamide", "domperidone", "dexamethasone", "colchicine", "phenazone", "metamizole sodium", "flunarizine", "mianserin"],
  "CYP2B_Q14097_HUMAN_Q14097": ["doxylamine", "fluoxetine", "chlorphenesin"],
  "CYP2C18_CP2CI_HUMAN_P33260": ["dapsone", "lidocaine", "valproic acid", "omeprazole", "lansoprazole", "imipramine", "diclofenac", "dexverapamil", "tretinoin", "propofol", "perphenazine", "diphenhydramine", "tolbutamide", "desipramine", "ifosfamide", "troleandomycin", "aminophenazone", "phenazone"],
  "CYP2C19_CP2CJ_HUMAN_P33261": ["ciclosporin", "colecalciferol", "fluvoxamine", "troglitazone", "ticlopidine", "torasemide", "citalopram", "lovastatin", "dapsone", "clotrimazole", "sulfanilamide", "metoprolol", "topiramate", "bupivacaine", "valproic acid", "gefitinib", "amitriptyline", "indometacin", "omeprazole", "diltiazem", "trimethadione", "aminoglutethimide", "clozapine", "timolol", "carisoprodol", "progesterone", "rosiglitazone", "promazine", "chloramphenicol", "lansoprazole", "imipramine", "fluoxetine", "zidovudine", "flutamide", "cimetidine", "haloperidol", "dextromethorphan", "mephenytoin", "nortriptyline", "carbamazepine", "dexpropranolol", "valdecoxib", "diclofenac", "doxazosin", "cisapride", "imatinib", "nicardipine", "prednisone", "simvastatin", "dexverapamil", "nilutamide", "chlorpropamide", "tamoxifen", "thioridazine", "methazolamide", "norethisterone", "trimipramine", "pentamidine", "carbinoxamine", "tranylcypromine", "ethotoin", "thiamazole", "phenelzine", "estradiol", "primidone", "propofol", "phensuximide", "brompheniramine"],
  "CYP2C8_CP2C8_HUMAN_P10632": ["ciclosporin", "colecalciferol", "troglitazone", "pyrimethamine", "ticlopidine", "torasemide", "lovastatin", "dapsone", "diethylstilbestrol", "clotrimazole", "theophylline", "lidocaine", "valproic acid", "paracetamol", "amitriptyline", "omeprazole", "terfenadine", "diltiazem", "trimethadione", "sulfadiazine", "clozapine", "progesterone", "rosiglitazone", "spironolactone", "trimethoprim", "chloramphenicol", "lansoprazole", "levothyroxine sodium", "raloxifene", "zidovudine", "cimetidine", "dextromethorphan", "mephenytoin", "rofecoxib", "piroxicam", "carbamazepine", "diclofenac", "cisapride", "chloroquine", "amodiaquine", "nicardipine", "simvastatin", "dexverapamil", "nilutamide", "tamoxifen", "thioridazine", "paroxetine", "pentamidine", "hydrocortisone", "carbinoxamine", "tretinoin", "mometasone", "etoposide", "phenelzine", "estradiol", "mefenamic acid", "naproxen", "primidone", "propofol", "brompheniramine", "loperamide", "perphenazine", "quinidine", "repaglinide", "metronidazole", "acetylsalicylic acid", "isoniazid", "ketoprofen"],
  "CYP2C9_CP2C9_HUMAN_P11712": ["ciclosporin", "colecalciferol", "fluvoxamine", "troglitazone", "pyrimethamine", "ticlopidine", "torasemide", "glimepiride", "lovastatin", "dapsone", "diethylstilbestrol", "clotrimazole", "sulfanilamide", "sulfafurazole", "dicoumarol", "theophylline", "lidocaine", "valproic acid", "paracetamol", "gefitinib", "amitriptyline", "indometacin", "omeprazole", "terfenadine", "diltiazem", "trimethadione", "sulfadiazine", "clozapine", "progesterone", "rosiglitazone", "promazine", "trimethoprim", "chloramphenicol", "lansoprazole", "tenoxicam", "fluoxetine", "celecoxib", "zidovudine", "cimetidine", "haloperidol", "dextromethorphan", "mephenytoin", "rofecoxib", "nortriptyline", "piroxicam", "carbamazepine", "cinnarizine", "sulfamethizole", "valdecoxib", "diclofenac", "cisapride", "amodiaquine", "imatinib", "nicardipine", "simvastatin", "estrone", "dexverapamil", "nilutamide", "chlorpropamide", "tamoxifen", "thioridazine"],
  "CYP2D6_CP2D6_HUMAN_P10635": ["ciclosporin", "colecalciferol", "fluvoxamine", "betaxolol", "pyrimethamine", "ticlopidine", "midodrine", "citalopram", "lovastatin", "clotrimazole", "sulfanilamide", "metoprolol", "theophylline", "lidocaine", "clemastine", "bupivacaine", "paracetamol", "gefitinib", "amitriptyline", "ipratropium bromide", "nitrofural", "omeprazole", "terfenadine", "diltiazem", "protriptyline", "chlorzoxazone", "mefloquine", "clozapine", "timolol", "mexiletine", "progesterone", "remoxipride", "rosiglitazone", "triprolidine", "prochlorperazine", "lansoprazole", "imipramine", "fluoxetine", "chlorpromazine", "celecoxib", "buspirone", "cimetidine", "haloperidol", "dextromethorphan", "carteolol", "mephenytoin", "nortriptyline", "amoxapine", "hydroxyzine", "cefalexin", "cinnarizine", "vinblastine", "dexpropranolol", "clonidine", "lisuride", "doxazosin", "labetalol", "cisapride", "chloroquine", "bisoprolol", "amodiaquine", "imatinib", "nicardipine", "fluphenazine"],
  "CYP2E1_CP2E1_HUMAN_P05181": ["folic acid", "menadione", "fluvoxamine", "ticlopidine", "citalopram", "dapsone", "diethylstilbestrol", "clotrimazole", "sulfanilamide", "theophylline", "paracetamol", "amitriptyline", "trimethadione", "chlorzoxazone", "sulfadiazine", "clozapine", "mexiletine", "streptozocin", "imipramine", "chlorpromazine", "cimetidine", "dextromethorphan", "nortriptyline", "diclofenac", "ethosuximide", "nicardipine", "fluphenazine", "clofibrate", "estrone", "tamoxifen", "thioridazine", "methazolamide", "carbinoxamine", "tranylcypromine", "thiamazole", "etoposide", "phenelzine", "propofol", "disulfiram", "brompheniramine", "dacarbazine", "clomifene", "isosorbide", "ondansetron", "quinidine", "isoniazid", "metyrapone", "selegiline", "thalidomide", "rifampicin", "pilocarpine", "pimozide", "miconazole", "nifedipine", "econazole", "proguanil", "desipramine", "bupropion", "orphenadrine", "mitoxantrone", "aminophylline", "dexamethasone", "colchicine", "levomepromazine", "theobromine", "phenazone", "ursodeoxycholic acid", "phenacetin"],
  "CYP2J2_CP2J2_HUMAN_P51589": ["colecalciferol", "nordihydroguaiaretic acid", "terfenadine", "astemizole"],
  "CYP2R1_CP2R1_HUMAN_Q6VVX0": ["ergocalciferol", "colecalciferol"],
  "CYP3A43_CP343_HUMAN_Q9HB55": ["ethosuximide", "phenelzine", "zalcitabine", "rifampicin", "praziquantel", "dexamethasone", "troleandomycin"],
  "CYP3A4_CP3A4_HUMAN_P08684": ["ciclosporin", "ergocalciferol", "colecalciferol", "fluvoxamine", "flunisolide", "troglitazone", "erythromycin", "ticlopidine", "citalopram", "lovastatin", "alclometasone", "dapsone", "doxycycline", "diethylstilbestrol", "clotrimazole", "sulfanilamide", "isradipine", "topiramate", "theophylline", "disopyramide", "lidocaine", "clemastine", "bupivacaine", "flucloxacillin", "valproic acid", "paracetamol", "gefitinib", "dihydroergotamine", "amitriptyline", "fluorometholone", "ipratropium bromide", "omeprazole", "pyrazinamide", "terfenadine", "diltiazem", "alfuzosin", "trimethadione", "methylergometrine", "chlorzoxazone", "aminoglutethimide", "mefloquine", "sulfadiazine", "clozapine", "levonorgestrel", "mexiletine", "digoxin", "nimodipine", "progesterone", "griseofulvin", "promazine", "prochlorperazine", "trimethoprim", "betamethasone", "chloramphenicol", "lansoprazole", "levothyroxine sodium"],
  "CYP3A5_CP3A5_HUMAN_P20815": ["ciclosporin", "fluvoxamine", "troglitazone", "erythromycin", "reserpine", "lovastatin", "dapsone", "lidocaine", "valproic acid", "gefitinib", "amitriptyline", "terfenadine", "diltiazem", "nimodipine", "beclometasone", "progesterone", "chloramphenicol", "fluoxetine", "buspirone", "flutamide", "cimetidine", "haloperidol", "dextromethorphan", "ciprofloxacin", "nortriptyline", "carbamazepine", "dexpropranolol", "clonidine", "fluticasone", "ethosuximide", "cisapride", "chloroquine", "imatinib", "nicardipine", "astemizole", "simvastatin", "estrone", "trazodone", "dexverapamil", "tamoxifen", "daunorubicin", "norethisterone", "risperidone", "pentamidine", "hydrocortisone", "tretinoin", "irinotecan", "etoposide", "phenelzine", "estradiol", "sulfasalazine", "disulfiram", "mifepristone", "ranitidine", "tacrolimus", "sirolimus", "ondansetron", "zalcitabine", "felodipine", "ketoconazole", "thalidomide", "rifampicin"],
  "CYP3A7_CP3A7_HUMAN_P24462": ["ciclosporin", "fluvoxamine", "troglitazone", "erythromycin", "lovastatin", "dapsone", "clotrimazole", "lidocaine", "terfenadine", "diltiazem", "progesterone", "chloramphenicol", "imipramine", "buspirone", "cimetidine", "haloperidol", "dextromethorphan", "ciprofloxacin", "carbamazepine", "dexpropranolol", "fluticasone", "ethosuximide", "cisapride", "imatinib", "astemizole", "simvastatin", "trazodone", "dexverapamil", "tamoxifen", "norethisterone", "risperidone", "hydrocortisone", "tretinoin", "irinotecan", "phenelzine", "estradiol", "mifepristone", "tacrolimus", "sirolimus", "ondansetron", "quinidine", "zalcitabine", "felodipine", "ketoconazole", "rifampicin", "nitrendipine", "praziquantel", "norfloxacin", "pimozide", "chlorphenamine", "nifedipine", "amiodarone", "ifosfamide", "domperidone", "finasteride", "paclitaxel", "saquinavir", "dexamethasone", "aminophenazone", "prasterone"],
  "CYP4A11_CP4AB_HUMAN_Q02928": ["lansoprazole", "clofibrate", "estrone", "pentamidine", "tretinoin", "rifampicin", "dexamethasone"],
  "CYP4B1_CP4B1_HUMAN_P13584": ["thiamine"],
  "CYP51A1_CP51A_HUMAN_Q16850": ["ketoconazole", "sertaconazole"],
  "DBH_DOPO_HUMAN_P09172": ["propylthiouracil", "dopamine"],
  "DCK_DCK_HUMAN_P27707": ["zalcitabine", "decitabine"],
  "DDC_DDC_HUMAN_P20711": ["cycloserine", "flupentixol", "amantadine", "levodopa"],
  "DHFR_DYR_HUMAN_P00374": ["methotrexate"],
  "FAAH_FAAH1_HUMAN_O00519": ["propofol"],
  "FMO1_FMO1_HUMAN_Q01740": ["cimetidine", "tamoxifen"],
  "FMO3_FMO3_HUMAN_P31513": ["dapsone", "clozapine", "cimetidine", "tamoxifen"],
  "FPGS_FOLC_HUMAN_Q05932": ["methotrexate"],
  "GCLC_GSH1_HUMAN_P48506": ["dl-alpha tocopherol"],
  "GGH_GGH_HUMAN_Q92820": ["folic acid", "methotrexate"],
  "GLUL_GLNA_HUMAN_P15104": ["picrotoxinin", "diazoxide"],
  "GSTA1_GSTA1_HUMAN_P08263": ["azathioprine"],
  "GSTA2_GSTA2_HUMAN_P09210": ["dl-alpha tocopherol", "clofibrate", "etacrynic acid", "azathioprine"],
  "GSTM1_GSTM1_HUMAN_P09488": ["azathioprine"],
  "GSTM3_GSTM3_HUMAN_P21266": ["dl-alpha tocopherol"],
  "GSTO1_GSTO1_HUMAN_P78417": ["dl-alpha tocopherol"],
  "GSTP1_GSTP1_HUMAN_P09211": ["dl-alpha tocopherol", "chlorambucil", "etoposide"],
  "GSTT1_GSTT1_HUMAN_P30711": ["etoposide"],
  "HMOX1_HMOX1_HUMAN_P09601": ["dl-alpha tocopherol"],
  "HNMT_HNMT_HUMAN_P50135": ["chlorhexidine", "mepacrine"],
  "HPRT1_HPRT_HUMAN_P00492": ["tioguanine"],
  "IDO1_I23O1_HUMAN_P14902": ["melatonin"],
  "MAOA_AOFA_HUMAN_P21397": ["riboflavin", "phenylpropanolamine", "furazolidone", "phenelzine", "dopamine"],
  "MAOB_AOFB_HUMAN_P27338": ["furazolidone", "phenelzine", "amantadine", "dopamine", "iproniazid"],
  "MMAB_MMAB_HUMAN_Q96EY8": ["cyanocobalamin"],
  "MPO_PERM_HUMAN_P05164": ["ticlopidine", "dapsone", "nabumetone", "tolmetin", "propylthiouracil", "cefaclor", "melatonin"],
  "MTHFR_MTHR_HUMAN_P42898": ["riboflavin", "folic acid", "menadione", "methotrexate"],
  "NAT1_ARY1_HUMAN_P18440": ["sulfamethoxazole"],
  "NAT2_ARY2_HUMAN_P11245": ["dapsone", "paracetamol", "isoniazid", "sulfamethoxazole"],
  "NDUFS2_NDUS2_HUMAN_O75306": ["doxorubicin"],
  "NDUFS3_NDUS3_HUMAN_O75489": ["doxorubicin"],
  "NDUFS7_NDUS7_HUMAN_O75251": ["doxorubicin"],
  "NOS1_NOS1_HUMAN_P29475": ["doxorubicin"],
  "NOS2_NOS2_HUMAN_P35228": ["doxorubicin"],
  "NOS3_NOS3_HUMAN_P29474": ["doxorubicin"],
  "NQO1_NQO1_HUMAN_P15559": ["dl-alpha tocopherol", "doxorubicin"],
  "PGD_6PGD_HUMAN_P52209": ["methotrexate", "furosemide", "ritodrine"],
  "PLA2G4A_PA24A_HUMAN_P47712": ["carbachol", "orlistat", "suramin sodium"],
  "PON3_PON3_HUMAN_Q15166": ["lovastatin"],
  "POR_NCPR_HUMAN_P16435": ["nilutamide", "daunorubicin", "nitrofurantoin", "doxorubicin"],
  "PTGS1_PGH1_HUMAN_P23219": ["torasemide", "dapsone", "valproic acid", "rosiglitazone", "rofecoxib", "nortriptyline", "valdecoxib", "diclofenac", "imatinib", "chlorpropamide", "etoposide", "sulfamethoxazole", "thalidomide", "diphenhydramine", "pioglitazone", "ifosfamide"],
  "PTGS2_PGH2_HUMAN_P35354": ["dapsone", "triamcinolone", "etoposide", "chlorphenesin", "bumetanide", "thalidomide"],
  "SOD1_SODC_HUMAN_P00441": ["dl-alpha tocopherol"],
  "SULT1A1_ST1A1_HUMAN_P50225": ["paracetamol", "tamoxifen"],
  "SULT1E1_ST1E1_HUMAN_P49888": ["paracetamol"],
  "SULT2A1_ST2A1_HUMAN_Q06520": ["paracetamol"],
  "TDO2_T23O_HUMAN_P48775": ["tolmetin", "nalidixic acid"],
  "TK1_KITH_HUMAN_P04183": ["trifluridine", "zidovudine"],
  "TPMT_TPMT_HUMAN_P51580": ["bendroflumethiazide", "azathioprine", "trichlormethiazide", "mercaptopurine", "cefazolin"],
  "TYMP_TYPH_HUMAN_P19971": ["trifluridine"],
  "TYMS_TYSY_HUMAN_P04818": ["methotrexate"],
  "UGT1A10_UD110_HUMAN_Q9HAW8": ["troglitazone", "valproic acid", "paracetamol", "etodolac"],
  "UGT1A1_UD11_HUMAN_P22309": ["troglitazone", "lovastatin", "paracetamol", "indometacin", "diclofenac", "simvastatin", "naltrexone", "flurbiprofen", "irinotecan", "etoposide", "estradiol", "naproxen", "propofol", "suprofen", "mycophenolic acid", "rifampicin", "fluvastatin", "testosterone"],
  "UGT1A3_UD13_HUMAN_P35503": ["troglitazone", "lovastatin", "valproic acid", "cyproheptadine", "simvastatin", "flurbiprofen", "etodolac", "fluvastatin"],
  "UGT1A4_UD14_HUMAN_P22310": ["troglitazone", "valproic acid", "clozapine", "tamoxifen", "trifluoperazine"],
  "UGT1A8_UD18_HUMAN_Q9HAW9": ["troglitazone", "valproic acid", "propofol", "diflunisal"],
  "UGT1A9_UD19_HUMAN_O60656": ["troglitazone", "valproic acid", "paracetamol", "indometacin", "haloperidol", "valdecoxib", "flurbiprofen", "etodolac", "irinotecan", "propofol", "sulfamethoxazole", "mycophenolic acid"],
  "UGT2B4_UD2B4_HUMAN_P06133": ["flurbiprofen"],
  "UGT2B7_UD2B7_HUMAN_P16662": ["troglitazone", "lovastatin", "valproic acid", "indometacin", "zidovudine", "carbamazepine", "diclofenac", "simvastatin", "flurbiprofen", "etodolac", "naproxen", "suprofen", "mycophenolic acid", "fluvastatin", "chenodeoxycholic acid"],
  "XDH_XDH_HUMAN_P47989": ["nadide", "menadione", "nitrofural", "pyrazinamide", "daunorubicin", "deferoxamine", "trifluoperazine", "chlorphenesin", "azathioprine", "doxorubicin", "mercaptopurine", "procarbazine"],
  "_CBR3_HUMAN_O75828": ["doxorubicin"],
  "_CPT_STRVP_Q56148": ["chloramphenicol"],
  "_EST2_HUMAN_O00748": ["irinotecan"],
  "_ST1A3_HUMAN_P50224": ["paracetamol"],
  "_UD16_HUMAN_P19224": ["troglitazone", "valproic acid", "paracetamol", "propofol", "mycophenolic acid"],
  "_UD17_HUMAN_Q9HAW7": ["troglitazone", "mycophenolic acid"],
  "_UDB15_HUMAN_P54855": ["troglitazone", "valproic acid", "paracetamol"],
  "aac_AAC2_MYCTU_P0A5N0": ["tobramycin", "kanamycin", "ribostamycin"],
  "aphA1_KKA1_ECOLX_P00551": ["kanamycin"],
  "bla_BLO10_PSEAI_P14489": ["meropenem"],
  "cat3_CAT3_ECOLX_P00484": ["chloramphenicol"],
  "cat_CAT4_PSEAE_P26841": ["chloramphenicol", "chlorhexidine"],
  "knt_KANU_STAAU_P05057": ["kanamycin"],
  "nat_NAT_MYCTU_P0A5L8": ["isoniazid", "sulfadimidine"],
  "penP_BLAC_BACLI_P00808": ["cefoxitin"]
}
