5743
55529
142891
9989
132864
6526
57162
54965
201895
8351
8365
254394
3475
57210
403341
23064
196264
9252
6477
57616
538
57532
2820
6801
54918
10333
7903
55350
94241
221037
8301
1656
255967
3480
255919
6416
22878
83737
571
2710
317649
50862
4361
196394
54407
6103
57035
440689
1130
64859
